4.3 Linear Mixed-effects Models. Why random effects matter | Statistics for Linguists using R - Quantitative and qualitative approaches
…
If you were not able to install the faux package, simply uncomment the following line of code below to import the dataset

#dataCong <- read.csv("dataCong.csv")[-1]

4.3.1.1 Counts

dataCong <- dataCong %>% 
  mutate(Subj = factor(Subj),
         Item = factor(Item))
dataCong

## # A tibble: 3,200 × 12
##    Subj   Item   Cond    Cond.Incongruent Age   Age.Old   u0s   u1s    u0i   u1i
##    <fct>  <fct>  <fct>              <dbl> <fct>   <dbl> <dbl> <dbl>  <dbl> <dbl>
##  1 Subj01 Item01 Congru…                0 Young       0 -413.  26.2 -306.  56.9 
##  2 Subj01 Item01 Incong…                1 Young       0 -413.  26.2 -306.  56.9 
##  3 Subj01 Item02 Congru…                0 Young       0 -413.  26.2  -55.4 69.1 
##  4 Subj01 Item02 Incong…                1 Young       0 -413.  26.2  -55.4 69.1 
##  5 Subj01 Item03 Congru…                0 Young       0 -413.  26.2  -17.4 -7.03
##  6 Subj01 Item03 Incong…                1 Young       0 -413.  26.2  -17.4 -7.03
##  7 Subj01 Item04 Congru…                0 Young       0 -413.  26.2   21.6 50.0 
##  8 Subj01 Item04 Incong…                1 Young       0 -413.  26.2   21.6 50.0 
##  9 Subj01 Item05 Congru…                0 Young       0 -413.  26.2  239.  12.8 
## 10 Subj01 Item05 Incong…                1 Young       0 -413.  26.2  239.  12.8 
## # ℹ 3,190 more rows
## # ℹ 2 more variables: sigma <dbl>, LookingTime <dbl>

4.3.1.1.1 Subjects

dataCong %>% 
  group_by(Cond, Age, Subj) %>% 
  summarise(count = n())

## # A tibble: 80 × 4
## # Groups:   Cond, Age [4]
##    Cond      Age   Subj   count
##    <fct>     <fct> <fct>  <int>
##  1 Congruent Young Subj01    40
##  2 Congruent Young Subj03    40
##  3 Congruent Young Subj05    40
##  4 Congruent Young Subj07    40
##  5 Congruent Young Subj09    40
##  6 Congruent Young Subj11    40
##  7 Congruent Young Subj13    40
##  8 Congruent Young Subj15    40
##  9 Congruent Young Subj17    40
## 10 Congruent Young Subj19    40
## # ℹ 70 more rows

4.3.1.1.2 Items

4.3.1.1.3 Age

dataCong %>% 
  group_by(Age, Item) %>% 
  summarise(count = n())

## # A tibble: 80 × 3
## # Groups:   Age [2]
##    Age   Item   count
##    <fct> <fct>  <int>
##  1 Young Item01    40
##  2 Young Item02    40
##  3 Young Item03    40
##  4 Young Item04    40
##  5 Young Item05    40
##  6 Young Item06    40
##  7 Young Item07    40
##  8 Young Item08    40
##  9 Young Item09    40
## 10 Young Item10    40
## # ℹ 70 more rows

4.3.1.1.4 Cond

dataCong %>% 
  group_by(Cond, Item) %>% 
  summarise(count = n())

## # A tibble: 80 × 3
## # Groups:   Cond [2]
##    Cond      Item   count
##    <fct>     <fct>  <int>
##  1 Congruent Item01    40
##  2 Congruent Item02    40
##  3 Congruent Item03    40
##  4 Congruent Item04    40
##  5 Congruent Item05    40
##  6 Congruent Item06    40
##  7 Congruent Item07    40
##  8 Congruent Item08    40
##  9 Congruent Item09    40
## 10 Congruent Item10    40
## # ℹ 70 more rows
…
