10.8 Random Forests | Statistics for Linguists using R - Quantitative and qualitative approaches
…
set.seed(42)
recipe <-  
  train_tbl %>%
  recipe(context ~ .) %>%
  step_center(all_predictors(), -all_outcomes()) %>%
  step_scale(all_predictors(), -all_outcomes())

recipePrep <- recipe %>% 
  prep()

trainData_baked <- bake(recipePrep, new_data = train_tbl) ## convert to the train data to the newly imputed data
trainData_baked

## # A tibble: 268 × 24
##       CPP Energy   H1A1c   H1A2c  H1A3c  H1H2c    H2H4c  H2KH5Kc   H42Kc  HNR05
##     <dbl>  <dbl>   <dbl>   <dbl>  <dbl>  <dbl>    <dbl>    <dbl>   <dbl>  <dbl>
##  1 -1.31   3.75  -0.317   0.248  -1.02  -0.927 -0.237    0.0286   0.0460 -1.63 
##  2 -0.269  3.77  -0.699  -0.367  -1.48  -0.855 -0.440   -0.600    0.614  -0.582
##  3 -3.16   0.681 -0.0470  0.598  -0.352 -0.886  0.138   -0.408    0.707  -2.21 
##  4 -1.28   2.49  -0.154   0.816  -1.77  -0.609 -0.284    0.491    0.420  -1.35 
##  5 -0.124  2.13  -0.437   0.0475 -1.62  -0.728 -0.140    0.435    0.604  -0.773
##  6 -0.833  1.87  -0.0359  0.322  -1.40  -0.518  0.140   -0.119    0.567  -1.61 
##  7  1.01   4.37  -0.829   0.124  -1.03  -0.993 -0.00285  0.249   -0.145  -0.788
##  8  0.234  1.80  -0.729   0.266  -0.456 -0.888 -0.600    0.0338   0.779  -0.379
##  9 -1.30   0.693 -0.169   0.560   0.702 -0.868  0.0419  -0.00233  0.759  -1.37 
## 10 -1.06   2.63  -0.266   0.147   1.78  -0.682 -0.336   -1.40     1.06   -0.972
## # ℹ 258 more rows
## # ℹ 14 more variables: HNR15 <dbl>, HNR25 <dbl>, HNR35 <dbl>, SHR <dbl>,
## #   soe <dbl>, Z1mnZ0 <dbl>, Z2mnZ1 <dbl>, Z3mnZ2 <dbl>, Z4mnZ3 <dbl>,
## #   F0Bark <dbl>, A1mnA2 <dbl>, A1mnA3 <dbl>, A2mnA3 <dbl>, context <fct>
…
10.8.3.3.6 Finalise model

We obtain the best performing model from cross-validation, then finalise the workflow by predicting the results on the testing set and obtain the results of the best performing model

set.seed(42)
collect_metrics(grid_tidym)

## # A tibble: 210 × 8
##     mtry trees .metric   .estimator  mean     n std_err .config              
##    <int> <int> <chr>     <chr>      <dbl> <int>   <dbl> <chr>                
##  1     4  1298 accuracy  binary     0.880    10  0.0257 Preprocessor1_Model01
##  2     4  1298 f_meas    binary     0.898    10  0.0214 Preprocessor1_Model01
##  3     4  1298 precision binary     0.856    10  0.0279 Preprocessor1_Model01
##  4     4  1298 recall    binary     0.951    10  0.0238 Preprocessor1_Model01
##  5     4  1298 roc_auc   binary     0.964    10  0.0106 Preprocessor1_Model01
##  6     4  1298 sens      binary     0.951    10  0.0238 Preprocessor1_Model01
##  7     4  1298 spec      binary     0.792    10  0.0452 Preprocessor1_Model01
##  8     4  1910 accuracy  binary     0.876    10  0.0281 Preprocessor1_Model02
##  9     4  1910 f_meas    binary     0.896    10  0.0226 Preprocessor1_Model02
## 10     4  1910 precision binary     0.853    10  0.0301 Preprocessor1_Model02
## # ℹ 200 more rows
…
