3.5 Cumulative Logit Link Models | Statistics for Linguists using R - Quantitative and qualitative approaches
…
We use two datasets. We previously ran these two models, however, in this subset of the full dataset, we did not take into account the fact that there were multiple producing speakers and items.

3.5.1 Ratings of percept of nasality

The first comes from a likert-scale a rating experiment where six participants rated the percept of nasality in the production of particular consonants in Arabic. The data came from nine producing subjects. The ratings were from 1 to 5, with 1 reflecting an oral percept; 5 a nasal percept.

3.5.1.1 Importing and pre-processing

We start by importing the data and process it. We change the reference
level in the predictor

rating <- read_csv("data/rating.csv")[-1]
rating

## # A tibble: 405 × 5
##    Response Context   Subject Item    Rater
##       <dbl> <chr>     <chr>   <chr>   <chr>
##  1        2 n-3       p04     noo3-w  R01  
##  2        4 isolation p04     noo3-v  R01  
##  3        2 o-3       p04     djuu3-w R01  
##  4        4 isolation p04     djuu3-v R01  
##  5        3 n-7       p04     nuu7-w  R01  
##  6        3 isolation p04     nuu7-v  R01  
##  7        1 3--3      p04     3oo3-w  R01  
##  8        2 isolation p04     3oo3-v  R01  
##  9        2 o-7       p04     loo7-w  R01  
## 10        1 o-3       p04     bii3-w  R01  
## # ℹ 395 more rows

rating <- rating %>% 
  mutate(Response = factor(Response),
         Context = factor(Context)) %>% 
  mutate(Context = relevel(Context, "isolation"))
rating

## # A tibble: 405 × 5
##    Response Context   Subject Item    Rater
##    <fct>    <fct>     <chr>   <chr>   <chr>
##  1 2        n-3       p04     noo3-w  R01  
##  2 4        isolation p04     noo3-v  R01  
##  3 2        o-3       p04     djuu3-w R01  
##  4 4        isolation p04     djuu3-v R01  
##  5 3        n-7       p04     nuu7-w  R01  
##  6 3        isolation p04     nuu7-v  R01  
##  7 1        3--3      p04     3oo3-w  R01  
##  8 2        isolation p04     3oo3-v  R01  
##  9 2        o-7       p04     loo7-w  R01  
## 10 1        o-3       p04     bii3-w  R01  
## # ℹ 395 more rows
…
