5.3 Where to find textual datasets? | Statistics for Linguists using R - Quantitative and qualitative approaches
…
5.3.2.4 Look into data

And we can get the top 60 rows from the first one

ducotedechezswann %>%
  head(n = 60)

## # A tibble: 60 × 4
##    text                                                       book  volume  year
##    <chr>                                                      <chr> <chr>  <dbl>
##  1 "Longtemps, je me suis couché de bonne heure. Parfois, à … Du c… Premi…  1913
##  2 "J'appuyais tendrement mes joues contre les belles joues … Du c… Premi…  1913
##  3 "Je me rendormais, et parfois je n'avais plus que de cour… Du c… Premi…  1913
##  4 "Quelquefois, comme Ève naquit d'une côte d'Adam, une fem… Du c… Premi…  1913
##  5 "Un homme qui dort tient en cercle autour de lui le fil d… Du c… Premi…  1913
##  6 "Peut-être l'immobilité des choses autour de nous leur es… Du c… Premi…  1913
##  7 "Puis renaissait le souvenir d'une nouvelle attitude ; le… Du c… Premi…  1913
##  8 "Ces évocations tournoyantes et confuses ne duraient jama… Du c… Premi…  1913
##  9 "Certes, j'étais bien éveillé maintenant : mon corps avai… Du c… Premi…  1913
## 10 "À Combray, tous les jours dès la fin de l'après-midi, lo… Du c… Premi…  1913
## # ℹ 50 more rows

5.3.3 gutenbergr

The gutenbergr package allows for search and download of public domain texts from Project Gutenberg

To use gutenbergr you must know the Gutenberg id of the work you wish to analyse. A text search of the works can be done using the gutenberg_metadata function.

5.3.3.1 Search for available work

gutenberg_metadata

## # A tibble: 72,569 × 8
##    gutenberg_id title    author gutenberg_author_id language gutenberg_bookshelf
##           <int> <chr>    <chr>                <int> <chr>    <chr>              
##  1            1 "The De… Jeffe…                1638 en       "Politics/American…
##  2            2 "The Un… Unite…                   1 en       "Politics/American…
##  3            3 "John F… Kenne…                1666 en       ""                 
##  4            4 "Lincol… Linco…                   3 en       "US Civil War"     
##  5            5 "The Un… Unite…                   1 en       "United States/Pol…
##  6            6 "Give M… Henry…                   4 en       "American Revoluti…
##  7            7 "The Ma… <NA>                    NA en       ""                 
##  8            8 "Abraha… Linco…                   3 en       "US Civil War"     
##  9            9 "Abraha… Linco…                   3 en       "US Civil War"     
## 10           10 "The Ki… <NA>                    NA en       "Banned Books List…
## # ℹ 72,559 more rows
## # ℹ 2 more variables: rights <chr>, has_text <lgl>

5.3.3.2 Filter available text

We can filter only available text

gutenberg_works(only_text = TRUE)

## # A tibble: 44,042 × 8
##    gutenberg_id title    author gutenberg_author_id language gutenberg_bookshelf
##           <int> <chr>    <chr>                <int> <chr>    <chr>              
##  1            1 "The De… Jeffe…                1638 en       "Politics/American…
##  2            2 "The Un… Unite…                   1 en       "Politics/American…
##  3            3 "John F… Kenne…                1666 en       ""                 
##  4            4 "Lincol… Linco…                   3 en       "US Civil War"     
##  5            5 "The Un… Unite…                   1 en       "United States/Pol…
##  6            6 "Give M… Henry…                   4 en       "American Revoluti…
##  7            7 "The Ma… <NA>                    NA en       ""                 
##  8            8 "Abraha… Linco…                   3 en       "US Civil War"     
##  9            9 "Abraha… Linco…                   3 en       "US Civil War"     
## 10           10 "The Ki… <NA>                    NA en       "Banned Books List…
## # ℹ 44,032 more rows
## # ℹ 2 more variables: rights <chr>, has_text <lgl>
…
5.3.3.6 Look into data

And we can get the top 60 rows

book_768 %>%
  head(n = 60)

## # A tibble: 60 × 2
##    gutenberg_id text               
##           <int> <chr>              
##  1          768 "Wuthering Heights"
##  2          768 ""                 
##  3          768 "by Emily Brontë"  
##  4          768 ""                 
##  5          768 ""                 
##  6          768 ""                 
##  7          768 ""                 
##  8          768 "CHAPTER I"        
##  9          768 ""                 
## 10          768 ""                 
## # ℹ 50 more rows
…
5.3.4.2 Download datasets

We download the smallest datasets from textdata:

#AFINN-111 sentiment lexicon
lexicon_afinn()

## # A tibble: 2,477 × 2
##    word       value
##    <chr>      <dbl>
##  1 abandon       -2
##  2 abandoned     -2
##  3 abandons      -2
##  4 abducted      -2
##  5 abduction     -2
##  6 abductions    -2
##  7 abhor         -3
##  8 abhorred      -3
##  9 abhorrent     -3
## 10 abhors        -3
## # ℹ 2,467 more rows
…
##      word               value             factor(word) 
##  Length:2477        Min.   :-5.0000   abandon   :   1  
##  Class :character   1st Qu.:-2.0000   abandoned :   1  
##  Mode  :character   Median :-2.0000   abandons  :   1  
##                     Mean   :-0.5894   abducted  :   1  
##                     3rd Qu.: 2.0000   abduction :   1  
##                     Max.   : 5.0000   abductions:   1  
##                                       (Other)   :2471

5.3.4.3 Look into data

lexicon_afinn() %>% 
  head(n = 60)

## # A tibble: 60 × 2
##    word       value
##    <chr>      <dbl>
##  1 abandon       -2
##  2 abandoned     -2
##  3 abandons      -2
##  4 abducted      -2
##  5 abduction     -2
##  6 abductions    -2
##  7 abhor         -3
##  8 abhorred      -3
##  9 abhorrent     -3
## 10 abhors        -3
## # ℹ 50 more rows
…
5.3.5.3.3 Unnest

dat_twitter %>% 
  unnest()

## Warning: `cols` is now required when using `unnest()`.
## ℹ Please use `cols = c()`.

## # A tibble: 7,504 × 44
##    doc_id          text  retweet_count favorite_count favorited truncated id_str
##    <chr>           <chr>         <dbl>          <dbl> <lgl>     <lgl>     <chr> 
##  1 twitter.json.1  "@EF…             0              0 FALSE     FALSE     87259…
##  2 twitter.json.2  "RT …            90            108 FALSE     FALSE     87259…
##  3 twitter.json.3  "RT …            78            104 FALSE     FALSE     87259…
##  4 twitter.json.4  "RT …           244            218 FALSE     FALSE     87259…
##  5 twitter.json.5  "RT …          1896           2217 FALSE     FALSE     87259…
##  6 twitter.json.6  "RT …            55             52 FALSE     FALSE     87259…
##  7 twitter.json.7  "RT …            65             73 FALSE     FALSE     87259…
##  8 twitter.json.8  "RT …            30              9 FALSE     FALSE     87259…
##  9 twitter.json.9  "RT …          1896           2217 FALSE     FALSE     87259…
## 10 twitter.json.10 "Wha…             0              0 FALSE     TRUE      87259…
## # ℹ 7,494 more rows
## # ℹ 37 more variables: in_reply_to_screen_name <chr>, source <chr>,
## #   retweeted <lgl>, created_at <chr>, in_reply_to_status_id_str <chr>,
## #   in_reply_to_user_id_str <chr>, lang <chr>, listed_count <dbl>,
## #   verified <lgl>, location <chr>, user_id_str <chr>, description <chr>,
## #   geo_enabled <lgl>, user_created_at <chr>, statuses_count <dbl>,
## #   followers_count <dbl>, favourites_count <dbl>, protected <lgl>, …
…
We feed the encoding to readtext() to convert various character encodings into UTF-8.

dat_txt <- readtext(paste0(Data_Dir, "/data_files_encodedtexts.zip"), 
                     encoding = encoding,
                     docvarsfrom = "filenames", 
                     docvarnames = c("document", "language", "input_encoding"))

dat_txt %>% 
  unnest()

## Warning: `cols` is now required when using `unnest()`.
## ℹ Please use `cols = c()`.

## # A tibble: 36 × 5
##    doc_id                             text      document language input_encoding
##    <chr>                              <chr>     <chr>    <chr>    <chr>         
##  1 IndianTreaty_English_UTF-16LE.txt  "WHEREAS… IndianT… English  UTF-16LE      
##  2 IndianTreaty_English_UTF-8-BOM.txt "ARTICLE… IndianT… English  UTF-8-BOM     
##  3 UDHR_Arabic_ISO-8859-6.txt         "الديباج… UDHR     Arabic   ISO-8859-6    
##  4 UDHR_Arabic_UTF-8.txt              "الديباج… UDHR     Arabic   UTF-8         
##  5 UDHR_Arabic_WINDOWS-1256.txt       "الديباج… UDHR     Arabic   WINDOWS-1256  
##  6 UDHR_Chinese_GB2312.txt            "世界人权宣言\… UDHR     Chinese  GB2312        
##  7 UDHR_Chinese_GBK.txt               "世界人权宣言\… UDHR     Chinese  GBK           
##  8 UDHR_Chinese_UTF-8.txt             "世界人权宣言\… UDHR     Chinese  UTF-8         
##  9 UDHR_English_UTF-16BE.txt          "Univers… UDHR     English  UTF-16BE      
## 10 UDHR_English_UTF-16LE.txt          "Univers… UDHR     English  UTF-16LE      
## # ℹ 26 more rows
…
