8.4 proustr | Statistics for Linguists using R - Quantitative and qualitative approaches
…
8.4.2 Look into data

And we can get the top 60 rows from the first one

ducotedechezswann %>%
  head(n = 60)

## # A tibble: 60 × 4
##    text                                                       book  volume  year
##    <chr>                                                      <chr> <chr>  <dbl>
##  1 "Longtemps, je me suis couché de bonne heure. Parfois, à … Du c… Premi…  1913
##  2 "J'appuyais tendrement mes joues contre les belles joues … Du c… Premi…  1913
##  3 "Je me rendormais, et parfois je n'avais plus que de cour… Du c… Premi…  1913
##  4 "Quelquefois, comme Ève naquit d'une côte d'Adam, une fem… Du c… Premi…  1913
##  5 "Un homme qui dort tient en cercle autour de lui le fil d… Du c… Premi…  1913
##  6 "Peut-être l'immobilité des choses autour de nous leur es… Du c… Premi…  1913
##  7 "Puis renaissait le souvenir d'une nouvelle attitude ; le… Du c… Premi…  1913
##  8 "Ces évocations tournoyantes et confuses ne duraient jama… Du c… Premi…  1913
##  9 "Certes, j'étais bien éveillé maintenant : mon corps avai… Du c… Premi…  1913
## 10 "À Combray, tous les jours dès la fin de l'après-midi, lo… Du c… Premi…  1913
## # ℹ 50 more rows
…
