9.5 Correlation tests | Statistics for Linguists using R - Quantitative and qualitative approaches
…
9.5.2.1 R² = 0.9

dim(dfPharV2)[2]-1

## [1] 24

rec <- dfPharV2 %>% 
  recipe(context ~ .) %>%
  step_corr(all_numeric_predictors(), threshold = 0.9) %>% 
  prep()
bake(rec, new_data = dfPharV2)

## # A tibble: 402 × 21
##    contextN   CPP Energy H1A1c H1A2c   H1A3c   H1H2c H2H4c H2KH5Kc  H42Kc HNR05
##    <fct>    <dbl>  <dbl> <dbl> <dbl>   <dbl>   <dbl> <dbl>   <dbl>  <dbl> <dbl>
##  1 G_01      23.5  22.8   15.2  16.0 -3.30   -1.18    2.65    23.2 -0.793 15.1 
##  2 G_02      25.7  22.8   13.2  11.6 -5.92   -0.739   1.65    16.5  3.22  27.6 
##  3 G_03      19.6   9.16  16.5  18.5  0.604  -0.928   4.50    18.5  3.88   8.08
##  4 G_04      23.6  17.2   16.0  20.1 -7.63    0.782   2.42    28.2  1.85  18.4 
##  5 G_05      26.0  15.6   14.5  14.6 -6.73    0.0442  3.13    27.6  3.15  25.3 
##  6 G_06      24.5  14.4   16.6  16.6 -5.46    1.34    4.51    21.6  2.89  15.2 
##  7 G_07      23.1  18.6   15.0  15.8 -5.94   -0.211   2.11    26.3  2.23  18.7 
##  8 G_08      22.2   9.04  17.1  18.4  2.10   -0.742   3.41    19.1  6.57  19.0 
##  9 G_09      28.4  25.5   12.5  15.1 -3.33   -1.59    3.80    25.6 -2.15  25.1 
## 10 G_10      28.2  15.8   14.7  16.3 -0.0528  0.108   3.50    22.5  1.01  29.4 
## # ℹ 392 more rows
## # ℹ 10 more variables: HNR25 <dbl>, SHR <dbl>, soe <dbl>, Z1mnZ0 <dbl>,
## #   Z2mnZ1 <dbl>, Z4mnZ3 <dbl>, A1mnA2 <dbl>, A1mnA3 <dbl>, A2mnA3 <dbl>,
## #   context <fct>

9.5.2.2 R² = 0.75

dim(dfPharV2)[2]-1

## [1] 24

rec <- dfPharV2 %>% 
  recipe(context ~ .) %>%
  step_corr(all_numeric_predictors(), threshold = 0.75) %>% 
  prep()
bake(rec, new_data = dfPharV2)

## # A tibble: 402 × 14
##    contextN   CPP Energy H1A1c H1A2c   H1A3c   H1H2c H2H4c H2KH5Kc   SHR Z1mnZ0
##    <fct>    <dbl>  <dbl> <dbl> <dbl>   <dbl>   <dbl> <dbl>   <dbl> <dbl>  <dbl>
##  1 G_01      23.5  22.8   15.2  16.0 -3.30   -1.18    2.65    23.2 0.425   5.08
##  2 G_02      25.7  22.8   13.2  11.6 -5.92   -0.739   1.65    16.5 0.358   5.16
##  3 G_03      19.6   9.16  16.5  18.5  0.604  -0.928   4.50    18.5 0.393   4.83
##  4 G_04      23.6  17.2   16.0  20.1 -7.63    0.782   2.42    28.2 0.384   4.81
##  5 G_05      26.0  15.6   14.5  14.6 -6.73    0.0442  3.13    27.6 0.42    4.71
##  6 G_06      24.5  14.4   16.6  16.6 -5.46    1.34    4.51    21.6 0.310   4.85
##  7 G_07      23.1  18.6   15.0  15.8 -5.94   -0.211   2.11    26.3 0.595   5.17
##  8 G_08      22.2   9.04  17.1  18.4  2.10   -0.742   3.41    19.1 0.478   5.15
##  9 G_09      28.4  25.5   12.5  15.1 -3.33   -1.59    3.80    25.6 0.405   4.83
## 10 G_10      28.2  15.8   14.7  16.3 -0.0528  0.108   3.50    22.5 0.497   4.75
## # ℹ 392 more rows
## # ℹ 3 more variables: Z4mnZ3 <dbl>, A1mnA3 <dbl>, context <fct>

9.5.2.3 R² = 0.5

dim(dfPharV2)[2]-1

## [1] 24

rec <- dfPharV2 %>% 
  recipe(context ~ .) %>%
  step_corr(all_numeric_predictors(), threshold = 0.5) %>% 
  prep()
bake(rec, new_data = dfPharV2)

## # A tibble: 402 × 9
##    contextN   CPP H1A1c H2H4c H2KH5Kc   SHR Z1mnZ0 Z4mnZ3 context 
##    <fct>    <dbl> <dbl> <dbl>   <dbl> <dbl>  <dbl>  <dbl> <fct>   
##  1 G_01      23.5  15.2  2.65    23.2 0.425   5.08  0.974 Guttural
##  2 G_02      25.7  13.2  1.65    16.5 0.358   5.16  1.27  Guttural
##  3 G_03      19.6  16.5  4.50    18.5 0.393   4.83  1.81  Guttural
##  4 G_04      23.6  16.0  2.42    28.2 0.384   4.81  0.789 Guttural
##  5 G_05      26.0  14.5  3.13    27.6 0.42    4.71  0.962 Guttural
##  6 G_06      24.5  16.6  4.51    21.6 0.310   4.85  0.591 Guttural
##  7 G_07      23.1  15.0  2.11    26.3 0.595   5.17  1.19  Guttural
##  8 G_08      22.2  17.1  3.41    19.1 0.478   5.15  1.41  Guttural
##  9 G_09      28.4  12.5  3.80    25.6 0.405   4.83  1.47  Guttural
## 10 G_10      28.2  14.7  3.50    22.5 0.497   4.75  1.51  Guttural
## # ℹ 392 more rows

9.5.2.4 R² = 0.25

dim(dfPharV2)[2]-1

## [1] 24

rec <- dfPharV2 %>% 
  recipe(context ~ .) %>%
  step_corr(all_numeric_predictors(), threshold = 0.25) %>% 
  prep()
bake(rec, new_data = dfPharV2)

## # A tibble: 402 × 5
##    contextN   CPP H2H4c Z4mnZ3 context 
##    <fct>    <dbl> <dbl>  <dbl> <fct>   
##  1 G_01      23.5  2.65  0.974 Guttural
##  2 G_02      25.7  1.65  1.27  Guttural
##  3 G_03      19.6  4.50  1.81  Guttural
##  4 G_04      23.6  2.42  0.789 Guttural
##  5 G_05      26.0  3.13  0.962 Guttural
##  6 G_06      24.5  4.51  0.591 Guttural
##  7 G_07      23.1  2.11  1.19  Guttural
##  8 G_08      22.2  3.41  1.41  Guttural
##  9 G_09      28.4  3.80  1.47  Guttural
## 10 G_10      28.2  3.50  1.51  Guttural
## # ℹ 392 more rows

9.5.2.5 R² = 0.1

dim(dfPharV2)[2]-1

## [1] 24

rec <- dfPharV2 %>% 
  recipe(context ~ .) %>%
  step_corr(all_numeric_predictors(), threshold = 0.1) %>% 
  prep()
bake(rec, new_data = dfPharV2)

## # A tibble: 402 × 5
##    contextN   CPP H2H4c Z4mnZ3 context 
##    <fct>    <dbl> <dbl>  <dbl> <fct>   
##  1 G_01      23.5  2.65  0.974 Guttural
##  2 G_02      25.7  1.65  1.27  Guttural
##  3 G_03      19.6  4.50  1.81  Guttural
##  4 G_04      23.6  2.42  0.789 Guttural
##  5 G_05      26.0  3.13  0.962 Guttural
##  6 G_06      24.5  4.51  0.591 Guttural
##  7 G_07      23.1  2.11  1.19  Guttural
##  8 G_08      22.2  3.41  1.41  Guttural
##  9 G_09      28.4  3.80  1.47  Guttural
## 10 G_10      28.2  3.50  1.51  Guttural
## # ℹ 392 more rows
…
